{
    "adherents": {
        "current_page": 1,
        "data": [
            {
                "id": 26,
                "name": "DD",
                "email": "f@gmail.com",
                "email_verified_at": null,
                "created_at": "2025-12-26T16:56:16.000000Z",
                "updated_at": "2025-12-26T16:56:16.000000Z",
                "telephone": "54784578",
                "username": "dd fsd",
                "prenom": "fsd",
                "otp": null,
                "dernier_abonnement": {
                    "id": 1,
                    "created_at": "2025-12-26T16:56:16.000000Z",
                    "updated_at": "2026-01-09T17:39:19.000000Z",
                    "transID": "T4wp#2025-12-26 00:00:00@802",
                    "plan": "trimestriel",
                    "montant": 2154,
                    "debut": "2026-01-09 17:39:19",
                    "fin": "2026-04-09 00:00:00",
                    "adherant_id": 26,
                    "salle_id": 9,
                    "actif": 1,
                    "date_suspension": null
                },
                "pivot": {
                    "salle_id": 9,
                    "adherent_id": 26,
                    "created_at": "2025-12-26T16:56:16.000000Z",
                    "updated_at": "2025-12-26T16:56:16.000000Z"
                }
            },
            {
                "id": 27,
                "name": "CROI",
                "email": "laa@gmail.com",
                "email_verified_at": null,
                "created_at": "2025-12-26T17:07:12.000000Z",
                "updated_at": "2026-01-07T17:55:40.000000Z",
                "telephone": "54125477",
                "username": "cr ceec",
                "prenom": "ceecaaa",
                "otp": null,
                "dernier_abonnement": {
                    "id": 2,
                    "created_at": "2025-12-26T17:07:12.000000Z",
                    "updated_at": "2025-12-26T17:07:12.000000Z",
                    "transID": "YcXf#2025-12-26 00:00:00@900",
                    "plan": "mensuel",
                    "montant": 10500,
                    "debut": "2025-12-26 17:07:12",
                    "fin": "2026-01-08 17:07:12",
                    "adherant_id": 27,
                    "salle_id": 9,
                    "actif": 0,
                    "date_suspension": null
                },
                "pivot": {
                    "salle_id": 9,
                    "adherent_id": 27,
                    "created_at": "2025-12-26T17:07:12.000000Z",
                    "updated_at": "2025-12-26T17:07:12.000000Z"
                }
            },
            {
                "id": 32,
                "name": "LOI",
                "email": "mp@gmail.com",
                "email_verified_at": null,
                "created_at": "2025-12-26T18:11:59.000000Z",
                "updated_at": "2025-12-26T18:11:59.000000Z",
                "telephone": "78544545",
                "username": "Loi MOI",
                "prenom": "moi",
                "otp": null,
                "dernier_abonnement": {
                    "id": 7,
                    "created_at": "2025-12-26T18:11:59.000000Z",
                    "updated_at": "2025-12-26T18:11:59.000000Z",
                    "transID": "o5T5#2025-12-26 00:00:00@200",
                    "plan": "annuel",
                    "montant": 1500,
                    "debut": "2025-12-26 18:11:59",
                    "fin": "2026-01-16 18:11:59",
                    "adherant_id": 32,
                    "salle_id": 9,
                    "actif": 1,
                    "date_suspension": null
                },
                "pivot": {
                    "salle_id": 9,
                    "adherent_id": 32,
                    "created_at": "2025-12-26T18:11:59.000000Z",
                    "updated_at": "2025-12-26T18:11:59.000000Z"
                }
            },
            {
                "id": 34,
                "name": "MILLOGO",
                "email": "uh@gmail.com",
                "email_verified_at": null,
                "created_at": "2025-12-28T21:58:41.000000Z",
                "updated_at": "2026-01-07T18:05:49.000000Z",
                "telephone": "41214587",
                "username": "Millog Auguste",
                "prenom": "auguste",
                "otp": null,
                "dernier_abonnement": {
                    "id": 9,
                    "created_at": "2025-12-28T21:58:41.000000Z",
                    "updated_at": "2025-12-28T21:58:41.000000Z",
                    "transID": "bZdY#2025-12-28 00:00:00@899",
                    "plan": "annuel",
                    "montant": 1500,
                    "debut": "2025-12-28 21:58:41",
                    "fin": "2026-12-28 21:58:41",
                    "adherant_id": 34,
                    "salle_id": 9,
                    "actif": 1,
                    "date_suspension": null
                },
                "pivot": {
                    "salle_id": 9,
                    "adherent_id": 34,
                    "created_at": "2025-12-28T21:58:41.000000Z",
                    "updated_at": "2025-12-28T21:58:41.000000Z"
                }
            },
            {
                "id": 35,
                "name": "MARA",
                "email": "mk@gmail.com",
                "email_verified_at": null,
                "created_at": "2025-12-28T22:00:48.000000Z",
                "updated_at": "2025-12-28T22:00:48.000000Z",
                "telephone": "78896521",
                "username": "Mara More",
                "prenom": "more",
                "otp": null,
                "dernier_abonnement": {
                    "id": 10,
                    "created_at": "2025-12-28T22:00:48.000000Z",
                    "updated_at": "2025-12-28T22:00:48.000000Z",
                    "transID": "BBZg#2025-12-28 00:00:00@145",
                    "plan": "mensuel",
                    "montant": 10500,
                    "debut": "2025-12-28 22:00:48",
                    "fin": "2026-01-28 22:00:48",
                    "adherant_id": 35,
                    "salle_id": 9,
                    "actif": 1,
                    "date_suspension": null
                },
                "pivot": {
                    "salle_id": 9,
                    "adherent_id": 35,
                    "created_at": "2025-12-28T22:00:48.000000Z",
                    "updated_at": "2025-12-28T22:00:48.000000Z"
                }
            },
            {
                "id": 36,
                "name": "JUJU",
                "email": "ju@gmail.com",
                "email_verified_at": null,
                "created_at": "2025-12-28T22:05:47.000000Z",
                "updated_at": "2025-12-28T22:05:47.000000Z",
                "telephone": "12345678",
                "username": "Juju joie",
                "prenom": "joie",
                "otp": null,
                "dernier_abonnement": {
                    "id": 11,
                    "created_at": "2025-12-28T22:05:47.000000Z",
                    "updated_at": "2025-12-28T22:05:47.000000Z",
                    "transID": "XO2N#2025-12-28 00:00:00@331",
                    "plan": "trimestriel",
                    "montant": 5000,
                    "debut": "2025-12-28 22:05:47",
                    "fin": "2026-03-28 22:05:47",
                    "adherant_id": 36,
                    "salle_id": 9,
                    "actif": 1,
                    "date_suspension": null
                },
                "pivot": {
                    "salle_id": 9,
                    "adherent_id": 36,
                    "created_at": "2025-12-28T22:05:47.000000Z",
                    "updated_at": "2025-12-28T22:05:47.000000Z"
                }
            },
            {
                "id": 40,
                "name": "MLIO",
                "email": "hy@gmail.com",
                "email_verified_at": null,
                "created_at": "2026-01-03T21:49:20.000000Z",
                "updated_at": "2026-01-03T21:49:20.000000Z",
                "telephone": "32568958",
                "username": "mlio jkui",
                "prenom": "jkui",
                "otp": null,
                "dernier_abonnement": {
                    "id": 15,
                    "created_at": "2026-01-03T21:49:20.000000Z",
                    "updated_at": "2026-01-03T21:49:20.000000Z",
                    "transID": "o5rY#2026-01-03 00:00:00@168",
                    "plan": "trimestriel",
                    "montant": 2154,
                    "debut": "2026-01-03 21:49:20",
                    "fin": "2026-04-03 21:49:20",
                    "adherant_id": 40,
                    "salle_id": 9,
                    "actif": 1,
                    "date_suspension": null
                },
                "pivot": {
                    "salle_id": 9,
                    "adherent_id": 40,
                    "created_at": "2026-01-03T21:49:20.000000Z",
                    "updated_at": "2026-01-03T21:49:20.000000Z"
                }
            },
            {
                "id": 44,
                "name": "TEST",
                "email": "test@gmail.com",
                "email_verified_at": null,
                "created_at": "2026-01-08T10:13:53.000000Z",
                "updated_at": "2026-01-08T10:13:53.000000Z",
                "telephone": "45785421",
                "username": "test test",
                "prenom": "test",
                "otp": null,
                "dernier_abonnement": {
                    "id": 19,
                    "created_at": "2026-01-08T10:13:53.000000Z",
                    "updated_at": "2026-01-08T10:13:53.000000Z",
                    "transID": "vwwT#2026-01-08 00:00:00@811",
                    "plan": "mensuel",
                    "montant": 4500,
                    "debut": "2026-01-08 10:13:53",
                    "fin": "2026-02-08 10:13:53",
                    "adherant_id": 44,
                    "salle_id": 9,
                    "actif": 1,
                    "date_suspension": null
                },
                "pivot": {
                    "salle_id": 9,
                    "adherent_id": 44,
                    "created_at": "2026-01-08T10:13:53.000000Z",
                    "updated_at": "2026-01-08T10:13:53.000000Z"
                }
            },
            {
                "id": 45,
                "name": "MILOMOLO",
                "email": "m@gmail.com",
                "email_verified_at": null,
                "created_at": "2026-01-09T00:34:23.000000Z",
                "updated_at": "2026-01-09T00:34:23.000000Z",
                "telephone": "78965412",
                "username": "MiloMolo Mokl",
                "prenom": "mokl",
                "otp": null,
                "dernier_abonnement": {
                    "id": 20,
                    "created_at": "2026-01-09T00:34:23.000000Z",
                    "updated_at": "2026-01-09T00:34:23.000000Z",
                    "transID": "UQWH#2026-01-09 00:00:00@673",
                    "plan": "annuel",
                    "montant": 4654,
                    "debut": "2026-01-09 00:34:23",
                    "fin": "2027-01-09 00:34:23",
                    "adherant_id": 45,
                    "salle_id": 9,
                    "actif": 1,
                    "date_suspension": null
                },
                "pivot": {
                    "salle_id": 9,
                    "adherent_id": 45,
                    "created_at": "2026-01-09T00:34:23.000000Z",
                    "updated_at": "2026-01-09T00:34:23.000000Z"
                }
            },
            {
                "id": 46,
                "name": "HGJH",
                "email": "hk@gmail.com",
                "email_verified_at": null,
                "created_at": "2026-01-14T15:46:13.000000Z",
                "updated_at": "2026-01-14T15:46:13.000000Z",
                "telephone": "45789652",
                "username": "hgjh ipoj",
                "prenom": "ipoj",
                "otp": null,
                "dernier_abonnement": {
                    "id": 21,
                    "created_at": "2026-01-14T15:46:13.000000Z",
                    "updated_at": "2026-01-14T15:46:13.000000Z",
                    "transID": "t8La#2026-01-14 00:00:00@963",
                    "plan": "annuel",
                    "montant": 4654,
                    "debut": "2026-01-14 15:46:13",
                    "fin": "2027-01-14 15:46:13",
                    "adherant_id": 46,
                    "salle_id": 9,
                    "actif": 1,
                    "date_suspension": null
                },
                "pivot": {
                    "salle_id": 9,
                    "adherent_id": 46,
                    "created_at": "2026-01-14T15:46:13.000000Z",
                    "updated_at": "2026-01-14T15:46:13.000000Z"
                }
            }
        ],
        "first_page_url": "http://localhost:8000/api/mes-adherant?page=1",
        "from": 1,
        "last_page": 2,
        "last_page_url": "http://localhost:8000/api/mes-adherant?page=2",
        "links": [
            {
                "url": null,
                "label": "&laquo; Previous",
                "page": null,
                "active": false
            },
            {
                "url": "http://localhost:8000/api/mes-adherant?page=1",
                "label": "1",
                "page": 1,
                "active": true
            },
            {
                "url": "http://localhost:8000/api/mes-adherant?page=2",
                "label": "2",
                "page": 2,
                "active": false
            },
            {
                "url": "http://localhost:8000/api/mes-adherant?page=2",
                "label": "Next &raquo;",
                "page": 2,
                "active": false
            }
        ],
        "next_page_url": "http://localhost:8000/api/mes-adherant?page=2",
        "path": "http://localhost:8000/api/mes-adherant",
        "per_page": 10,
        "prev_page_url": null,
        "to": 10,
        "total": 11
    },
    "mensuel": 30000,
    "trimestriel": 9308,
    "annuel": 12308
}